…
    ## $functions
    ## # A tibble: 6 x 5
    ##   Identifier Symbol Annotation                 Title                  PMID 
    ##   <chr>      <chr>  <chr>                      <chr>                  <chr>
    ## 1 AT4G14400  ACD6   Study propose that alleli… Modulation of ACD6 de… 3023…
    ## 2 AT4G14400  ACD6   NLR gene can mask the act… Modulation of ACD6 de… 3023…
    ## 3 AT4G14400  ACD6   Data indicate protein kin… Salicylic acid regula… 2531…
    ## 4 AT4G14400  ACD6   Salicylic acid signaling … Salicylic acid signal… 2492…
    ## 5 AT4G14400  ACD6   Here we show instead that… Activation of the Ara… 2501…
    ## 6 AT4G14400  ACD6   The effects of mutation o… Structure-function an… 1629…
    ## 
    ## $publications
    ## # A tibble: 24 x 4
    ##    Identifier Symbol Title                                           PMID  
    ##    <chr>      <chr>  <chr>                                           <chr> 
    ##  1 AT4G14400  ACD6   Modulation of ACD6 dependent hyperimmunity by … 30235…
    ##  2 AT4G14400  ACD6   Araport11: a complete reannotation of the Arab… 27862…
    ##  3 AT4G14400  ACD6   Accumulation of endogenous salicylic acid conf… 24603…
    ##  4 AT4G14400  ACD6   Salicylic acid signaling controls the maturati… 24923…
    ##  5 AT4G14400  ACD6   Activation of the Arabidopsis thaliana immune … 25010…
    ##  6 AT4G14400  ACD6   Salicylic acid regulates Arabidopsis microbial… 25315…
    ##  7 AT4G14400  ACD6   A survey of dominant mutations in Arabidopsis … 22995…
    ##  8 AT4G14400  ACD6   C2-mediated decrease in DNA methylation, accum… 23176…
    ##  9 AT4G14400  ACD6   Phylogenetic-based propagation of functional a… 21873…
    ## 10 AT4G14400  ACD6   SIZ1, a small ubiquitin-related modifier ligas… 19959…
    ## # … with 14 more rows
    ## 
    ## $`GO-Term Keywords`
…
    ## $functions
    ## # A tibble: 6 x 5
    ##   Identifier Symbol Annotation                 Title                  PMID 
    ##   <chr>      <chr>  <chr>                      <chr>                  <chr>
    ## 1 AT4G14400  ACD6   Study propose that alleli… Modulation of ACD6 de… 3023…
    ## 2 AT4G14400  ACD6   NLR gene can mask the act… Modulation of ACD6 de… 3023…
    ## 3 AT4G14400  ACD6   Data indicate protein kin… Salicylic acid regula… 2531…
    ## 4 AT4G14400  ACD6   Salicylic acid signaling … Salicylic acid signal… 2492…
    ## 5 AT4G14400  ACD6   Here we show instead that… Activation of the Ara… 2501…
    ## 6 AT4G14400  ACD6   The effects of mutation o… Structure-function an… 1629…
    ## 
    ## $publications
    ## # A tibble: 24 x 4
    ##    Identifier Symbol Title                                           PMID  
    ##    <chr>      <chr>  <chr>                                           <chr> 
    ##  1 AT4G14400  ACD6   Modulation of ACD6 dependent hyperimmunity by … 30235…
    ##  2 AT4G14400  ACD6   Araport11: a complete reannotation of the Arab… 27862…
    ##  3 AT4G14400  ACD6   Accumulation of endogenous salicylic acid conf… 24603…
    ##  4 AT4G14400  ACD6   Salicylic acid signaling controls the maturati… 24923…
    ##  5 AT4G14400  ACD6   Activation of the Arabidopsis thaliana immune … 25010…
    ##  6 AT4G14400  ACD6   Salicylic acid regulates Arabidopsis microbial… 25315…
    ##  7 AT4G14400  ACD6   A survey of dominant mutations in Arabidopsis … 22995…
    ##  8 AT4G14400  ACD6   C2-mediated decrease in DNA methylation, accum… 23176…
    ##  9 AT4G14400  ACD6   Phylogenetic-based propagation of functional a… 21873…
    ## 10 AT4G14400  ACD6   SIZ1, a small ubiquitin-related modifier ligas… 19959…
    ## # … with 14 more rows
    ## 
    ## $`GO-Term Keywords`
…
